Simulation
…
We define the carryover effect to be the difference in the response variable in period 2 in the two different groups. It does not matter whether we add this difference to the response variable values of group 1 or group 2, as long as we do not add a value to both. If we added a value each to both and they both had the same sign, the carryover effect becomes indistinguishable from the learning effect.

Data Visualization

We visualize the distribution of the response variable stratified by different factors.

observations

## # A tibble: 100 x 7
## # Rowwise: 
##      PID   skill group measure period treatment response
##    <int>   <dbl> <dbl>   <int>  <int> <lgl>        <dbl>
##  1     1  1.51       1       1      1 FALSE        2.12 
##  2     1  1.51       1       1      2 TRUE         1.91 
##  3     2 -0.0947     2       1      1 TRUE        -0.126
##  4     2 -0.0947     2       1      2 FALSE        1.32 
##  5     3  2.02       1       1      1 FALSE        1.99 
##  6     3  2.02       1       1      2 TRUE         2.12 
##  7     4 -0.0627     2       1      1 TRUE         0.958
##  8     4 -0.0627     2       1      2 FALSE        1.66 
##  9     5  1.30       1       1      1 FALSE        1.63 
## 10     5  1.30       1       1      2 TRUE         2.20 
## # i 90 more rows
…
